{
    "status": true,
    "apiVersion": "v1.0",
    "statusCode": 200,
    "type": "OK",
    "message": "Success",
    "data": [
        {
            "page_id": 1,
            "page_title": "Sample Title",
            "page_description": "Sample page description",
            "created_by": "mushaheedx",
            "created_at": "2021-05-21T20:00:14.000Z",
            "section_id": 1,
            "section_title": "Sample Title",
            "section_description": "Sample page description",
            "is_section_active": true
        }
    ]
}